{
  "project_info": {
    "project_number": "862429939835",
    "firebase_url": "https://nutritio-19fa3.firebaseio.com",
    "project_id": "nutritio-19fa3",
    "storage_bucket": "nutritio-19fa3.appspot.com"
  },
  "client": [{
    "client_info": {
      "mobilesdk_app_id": "1:862429939835:android:24045b7e266a288e",
      "android_client_info": {
        "package_name": "za.org.nutritio"
      }
    },
    "oauth_client": [{
      "client_id": "862429939835-o7murjdpjmucn9u34mbv87v8ff0mnske.apps.googleusercontent.com",
      "client_type": 3
    }],
    "api_key": [{
      "current_key": "AIzaSyD12zWCjMzuV_L4Qs0uvdXWk5d9_gELJQo"
    }],
    "services": {
      "appinvite_service": {
        "other_platform_oauth_client": [{
            "client_id": "862429939835-o7murjdpjmucn9u34mbv87v8ff0mnske.apps.googleusercontent.com",
            "client_type": 3
          },
          {
            "client_id": "862429939835-gsj7vrme31stqv4dr60iqapt7o67ij4t.apps.googleusercontent.com",
            "client_type": 2,
            "ios_info": {
              "bundle_id": "za.org.nutritio"
            }
          }
        ]
      }
    }
  }],
  "configuration_version": "1"
}